﻿{
  "mySpeed": "自分の車の速度（LabyrinthView.ACCEL_WEIGHT を上書き）",
  "mySpeed": 3.0,
  "myBallScale": "自分の車の大きさ（LabyrinthView.BALL_SCALE を上書き）",
  "myBallScale": 0.7,
  "bikeDensity": "自転車の密度（デフォルト値）",
  "bikeDensity": 0.12,
  "bikeSpeed": "自転車の速度（blockSizeとの比; デフォルト値）",
  "bikeSpeed": 0.03,
  "bikeRadius": "自転車の描画時の半径（blockSizeとの比; デフォルト値）",
  "bikeRadius": 0.07,
  "bikeMargin": "自転車の走行位置．路肩からの距離（blockSizeとの比; デフォルト値）",
  "bikeMargin": 0.15,
  "reverseRunRatio": "逆走する自転車の割合（デフォルト値）",
  "reverseRunRatio": 0.2,
  "parallelRunRatio": "並走する自転車の割合（デフォルト値）",
  "parallelRunRatio": 0.1,
  "sineCurveUnstabilityRatio": "サインカーブ風にフラツキ走行する自転車の割合（デフォルト値）",
  "sineCurveUnstabilityRatio": 0.3,
  "randomWalkUnstabilityRatio": "ランダムウォーク風にフラツキ走行する自転車の割合（デフォルト値）",
  "randomWalkUnstabilityRatio": 0.3,
  "carDensity": "自動車の密度（デフォルト値）",
  "carDensity": 0.06,
  "carSpeed": "自動車の速度（blockSizeとの比; デフォルト値）",
  "carSpeed": 0.05,
  "carRadius": "自動車の描画時の半径（blockSizeとの比; デフォルト値）",
  "carRadius": 0.35,
  "carMargin": "自動車の走行位置．路肩からの距離（blockSizeとの比; デフォルト値）",
  "carMargin": 0.6,
  "maps": [
    {
      "blockNumX":  5,
      "blockNumY":  7,
      "screenNumX": 1,
      "screenNumY": 1,
      "map": "
＃＃＃＃＃
＃始　　＃
＃＃赤　＃
＃　　　＃
＃　７＃＃
＃　　終＃
＃＃＃＃＃
"
    },
    {
      "blockNumX": 15,
      "blockNumY": 20,
      "screenNumX": 1,
      "screenNumY": 1,
      "map": "
＃＃＃＃＃＃＃＃＃＃＃＃＃＃＃
＃始　　　　　　　　　　　　＃
＃＃＃赤＃７＃赤＃７＃赤＃　＃
＃＃＃＃＃＃＃＃＃＃＃＃＃　＃
＃＃＃７＃赤＃７＃赤＃７＃　＃
＃　　　　　　　　　　　　　＃
＃　＃赤＃７＃赤＃７＃赤＃＃＃
＃　＃＃＃＃＃＃＃＃＃＃＃＃＃
＃　＃＃＃＃＃＃＃＃＃＃＃＃＃
＃　＃７＃赤＃７＃赤＃７＃＃＃
＃　　　　　　　　　　　　　＃
＃＃＃赤＃７＃赤＃７＃赤＃　＃
＃＃＃＃＃＃＃＃＃＃＃＃＃　＃
＃＃＃７＃赤＃７＃赤＃７＃　＃
＃　　　　　　　　　　　　　＃
＃　＃赤＃７＃赤＃７＃赤＃＃＃
＃　＃＃＃＃＃＃＃＃＃＃＃＃＃
＃　＃７＃赤＃７＃赤＃７＃＃＃
＃　　　　　　　　　　　　終＃
＃＃＃＃＃＃＃＃＃＃＃＃＃＃＃
"
    },
    {
      "blockNumX": "横方向に存在するブロック数",
      "blockNumX": 12,
      "blockNumY": "縦方向に存在するブロック数",
      "blockNumY": 16,
      "screenNumX": "横方向に存在するスクリーン数",
      "screenNumX": 1,
      "screenNumY": "縦方向に存在するスクリーン数",
      "screenNumY": 1,
      "bikeDensity": "自転車の密度",
      "bikeDensity": 0.28,
      "bikeSpeed": "自転車の速度（blockSizeとの比）",
      "bikeSpeed": 0.03,
      "bikeRadius": "自転車の描画時の半径（blockSizeとの比）",
      "bikeRadius": 0.07,
      "bikeMargin": "自転車の走行位置．路肩からの距離（blockSizeとの比）",
      "bikeMargin": 0.17,
      "reverseRunRatio": "逆走する自転車の割合",
      "reverseRunRatio": 0.2,
      "parallelRunRatio": "並走する自転車の割合",
      "parallelRunRatio": 0.1,
      "sineCurveUnstabilityRatio": "サインカーブ風にフラツキ走行する自転車の割合",
      "sineCurveUnstabilityRatio": 0.4,
      "randomWalkUnstabilityRatio": "ランダムウォーク風にフラツキ走行する自転車の割合",
      "randomWalkUnstabilityRatio": 0.4,
      "carDensity": "自動車の密度",
      "carDensity": 0.08,
      "carSpeed": "自動車の速度（blockSizeとの比）",
      "carSpeed": 0.06,
      "carRadius": "自動車の描画時の半径（blockSizeとの比）",
      "carRadius": 0.35,
      "carMargin": "自動車の走行位置．路肩からの距離（blockSizeとの比）",
      "carMargin": 0.6,
      "map": "
＃＃＃＃＃↑│＃＃＃＃＃
＃始　──┼┼───→＃
＃　　←─┼┼────＃
＃＃＃＃赤││７＃＃＃＃
＃＃＃＃＃││＃＃＃＃＃
＃＃＃＃＃││＃＃＃＃＃
＃＃＃＃７││赤＃＃＃＃
＃────┼┼───→＃
＃←───┼┼────＃
＃＃＃＃赤││７＃＃＃＃
＃＃＃＃＃││＃＃＃＃＃
＃＃＃＃＃││＃＃＃＃＃
＃＃＃＃７││赤＃＃＃＃
＃────┼┼──→終＃
＃←───┼┼────＃
＃＃＃＃＃│↓＃＃＃＃＃
"
    },
    {
      "blockNumX": 12,
      "blockNumY": 16,
      "screenNumX": 2,
      "screenNumY": 2,
      "bikeDensity": 0.12,
      "bikeSpeed": 0.03,
      "bikeRadius": 0.07,
      "bikeMargin": 0.15,
      "reverseRunRatio": 0.2,
      "parallelRunRatio": 0.1,
      "carDensity": 0.06,
      "carSpeed": 0.05,
      "carRadius": 0.35,
      "carMargin": 0.6,
      "map": "
＃＃＃＃＃＃＃＃＃＃＃＃＃＃＃＃＃＃＃＃＃＃＃＃
＃始　　──────→○　　　　　　　　　　　＃
＃　　　←────┬──〇←───────┐　＃
＃＃＃＃＃＃＃＃＃│　＃＃＃＃＃＃＃＃＃＃│　＃
＃＃＃＃＃＃＃＃＃│　＃＃＃＃＃＃＃＃＃＃│　＃
＃＃＃＃＃＃＃＃＃│　＃＃＃┌──────┘　＃
＃＃＃＃＃＃＃＃＃│　＃＃＃│　　　　　　　　＃
＃┌───────┤　＃＃＃│　＃＃＃＃＃＃＃＃
＃│　　　　　　　│　＃＃＃│　＃＃＃＃＃＃＃＃
＃│　＃＃　＃＃＃│　＃＃＃│　　　　　　　　＃
＃│　＃＃　＃＃＃│　＃＃＃└──────┐　＃
＃│　＃＃　＃＃＃│　＃＃＃＃＃＃＃＃＃＃│　＃
＃│　＃＃　＃＃＃│　＃＃＃＃＃＃＃＃＃＃│　＃
＃│　＃＃　＃＃＃│　〇─────────┘　＃
＃│　＃＃　＃＃＃│　　〇　　　　　　　　　　＃
＃│○＃＃〇＃＃＃│〇＃＃＃＃＃＃＃＃＃＃＃＃＃
＃○　＃＃　＃＃＃〇　＃＃＃＃＃＃＃＃＃＃＃＃＃
＃↑　＃＃　＃＃＃↑　＃＃＃＃＃＃　　　　　　＃
＃│　＃＃　＃＃＃│　〇　　　＃＃　┌──┐　＃
＃│　＃＃　＃＃＃├──〇　　＃＃　│＃＃│　＃
＃│　＃＃　＃＃＃│　＃＃　　＃＃　│＃＃│　＃
＃│　　　　　　　│　＃＃　　＃＃　│＃＃│　＃
＃└───────┤　＃＃　　＃＃　│＃＃│　＃
＃＃＃＃＃＃＃＃＃│　＃＃　　＃＃　│＃＃│　＃
＃＃＃＃＃＃＃＃＃│　＃＃　　＃＃　│＃＃│　＃
＃┌───────┴→〇　　　＃＃　│＃＃│　＃
＃│　　　　　　　　　　〇　　＃＃　│＃＃│　＃
＃│　＃＃＃＃＃＃＃＃＃＃＃＃＃＃　│＃＃│　＃
＃│　＃＃＃＃＃＃＃＃＃＃＃＃＃＃　│＃＃│　＃
＃│　　　　　　　　　〇　　　　　　│＃＃│　＃
＃└──────────〇←────┘＃＃│終＃
＃＃＃＃＃＃＃＃＃＃＃＃＃＃＃＃＃＃＃＃＃＃＃＃
"
    },
    {
      "blockNumX": 12,
      "blockNumY": 16,
      "screenNumX": 2,
      "screenNumY": 2,
      "bikeDensity": 0.24,
      "bikeSpeed": 0.03,
      "bikeRadius": 0.07,
      "bikeMargin": 0.17,
      "reverseRunRatio": 0.2,
      "parallelRunRatio": 0.1,
      "carDensity": 0.06,
      "carSpeed": 0.05,
      "carRadius": 0.35,
      "carMargin": 0.6,
      "map": "
＃＃＃＃＃＃＃＃＃＃＃＃＃＃＃＃＃＃＃＃＃＃＃＃
＃始　　─────┬→○　　────────┐＃
＃　　　←───┬┼──〇　←──────┐│＃
＃＃＃＃＃＃＃＃││＃＃＃＃＃＃＃＃＃＃＃││＃
＃＃＃＃＃＃＃＃││＃＃＃＃＃＃＃＃＃＃＃││＃
＃＃＃＃＃＃＃＃││＃＃＃┌───────┘│＃
＃＃＃＃＃＃＃＃││＃＃＃│┌───────┘＃
＃┌──────┤│＃＃＃││＃＃＃＃＃＃＃＃＃
＃│┌──┬──┼┤＃＃＃││＃＃＃＃＃＃＃＃＃
＃││＃＃│＃＃││＃＃＃│└───────┐＃
＃││＃＃│＃＃││＃＃＃└───────┐│＃
＃││＃＃│＃＃││＃＃＃＃＃＃＃＃＃＃＃││＃
＃││＃＃│＃＃││＃＃＃＃＃＃＃＃＃＃＃││＃
＃││＃＃│＃＃│├─〇─────────┘│＃
＃│↓＃＃↓＃＃│↓　　〇←────────┘＃
＃│○＃＃〇＃＃│〇＃＃＃＃＃＃＃＃＃＃＃＃＃＃
＃○　＃＃　＃＃〇　＃＃＃＃＃＃＃＃＃＃＃＃＃＃
＃↑│＃＃│＃＃↑│＃＃＃＃＃＃＃┌────┐＃
＃││＃＃│＃＃│├→〇　──┐＃│┌──┐│＃
＃││＃＃│＃＃├┼─　〇←┐│＃││＃＃││＃
＃││＃＃│＃＃││＃＃＃＃││＃││＃＃││＃
＃│└──┴──┼┤＃＃＃＃││＃││＃＃││＃
＃└──────┤│＃＃＃＃││＃││＃＃││＃
＃＃＃＃＃＃＃＃││＃＃＃＃││＃││＃＃││＃
＃＃＃＃＃＃＃＃││＃＃＃＃││＃││＃＃││＃
＃┌──────┴┼→〇　─┘│＃││＃＃││＃
＃│┌──────┴─　〇←─┘＃││＃＃││＃
＃││＃＃＃＃＃＃＃＃＃＃＃＃＃＃││＃＃││＃
＃││＃＃＃＃＃＃＃＃＃＃＃＃＃＃││＃＃││＃
＃│└───────→〇　────┘│＃＃│↓＃
＃└─────────　〇←────┘＃＃│終＃
＃＃＃＃＃＃＃＃＃＃＃＃＃＃＃＃＃＃＃＃＃＃＃＃
"
    },
    {
      "blockNumX": 15,
      "blockNumY": 20,
      "screenNumX": 1,
      "screenNumY": 1,
      "bikeDensity": 0.28,
      "bikeSpeed": 0.03,
      "bikeRadius": 0.07,
      "bikeMargin": 0.17,
      "reverseRunRatio": 0.2,
      "parallelRunRatio": 0.1,
      "carDensity": 0.08,
      "carSpeed": 0.06,
      "carRadius": 0.35,
      "carMargin": 0.6,
      "map": "
＃＃＃＃＃＃＃＃＃＃＃＃＃＃＃
＃＃＃＃＃＃↑│＃＃＃＃＃＃＃
＃始　───┼┼─────→＃
＃　　←──┼┼──────＃
＃＃＃＃＃＃││＃＃＃＃＃＃＃
＃＃＃＃＃＃││＃＃＃＃＃＃＃
＃＃＃＃＃＃││＃＃＃＃＃＃＃
＃＃＃＃＃＃││＃＃＃＃＃＃＃
＃─────┼┼─────→＃
＃←────┼┼──────＃
＃＃＃＃＃＃││＃＃＃＃＃＃＃
＃＃＃＃＃＃││＃＃＃＃＃＃＃
＃＃＃＃＃＃││＃＃＃＃＃＃＃
＃＃＃＃＃＃││＃＃＃＃＃＃＃
＃─────┼┼─────→＃
＃─────┼┼────→終＃
＃←────┼┼──────＃
＃←────┼┼──────＃
＃＃＃＃＃＃│↓＃＃＃＃＃＃＃
＃＃＃＃＃＃＃＃＃＃＃＃＃＃＃
"
    }
  ]

}
